Introduction to the tidyverse
…
Next, well use transmute() to drop all but a subset of variables.You could use select() here as well.

## Subset recs to home-type, state, and sample weight: ------------------------
recs_homes = transmute(recs_tib, 
                       state = REPORTABLE_DOMAIN,
                       type = TYPEHUQ, 
                       weight = NWEIGHT)
recs_homes

## # A tibble: 12,083 x 3
##    state  type weight
##    <dbl> <dbl>  <dbl>
##  1    12     2  2472.
##  2    26     2  8599.
##  3     1     5  8970.
##  4     7     2 18004.
##  5     1     3  6000.
##  6    10     2  4232.
##  7     3     2  7862.
##  8    17     2  6297.
##  9     5     3 12157.
## 10    12     2  3242.
## #  with 12,073 more rows
…
  sapply(x, decode_house_type)
}

Next we mutate() our data frame, replacing our numeric codes with decoded values.

recs_homes = mutate(recs_homes, 
                    state = decode_all_states(state),
                    type = decode_all_house_types(type)
             )
recs_homes

## # A tibble: 12,083 x 3
##    state              type                   weight
##    <chr>              <chr>                   <dbl>
##  1 MO                 single_family_detached  2472.
##  2 CA                 single_family_detached  8599.
##  3 CT, ME, NH, RI, VT apartment_many          8970.
##  4 IN, OH             single_family_detached 18004.
##  5 CT, ME, NH, RI, VT single_family_attached  6000.
##  6 IA, MN, ND, SD     single_family_detached  4232.
##  7 NY                 single_family_detached  7862.
##  8 FL                 single_family_detached  6297.
##  9 PA                 single_family_attached 12157.
## 10 MO                 single_family_detached  3242.
## #  with 12,073 more rows
…
In this section well cover the dplyr() functions:

group_by(): to create groups (i.e.split),

summarize(): to aggregate (combine) by group .

Recall that we are interested in computing the proportion of each housing type by state or reportable domain. We can do this using the split-apply-combine paradigm  in dplyr and other languages this is accomplished using a group operation with an aggregation function. In dplyr we use group_by() to group and summarize() to aggregate.

First the grouping:

# Aggregate weights by state and home type: ----------------------------------
recs_homes_group_states = group_by(recs_homes, state, type)
recs_homes_group_states

## # A tibble: 12,083 x 3
## # Groups:   state, type [134]
##    state              type                   weight
##    <chr>              <chr>                   <dbl>
##  1 MO                 single_family_detached  2472.
##  2 CA                 single_family_detached  8599.
##  3 CT, ME, NH, RI, VT apartment_many          8970.
##  4 IN, OH             single_family_detached 18004.
##  5 CT, ME, NH, RI, VT single_family_attached  6000.
##  6 IA, MN, ND, SD     single_family_detached  4232.
##  7 NY                 single_family_detached  7862.
##  8 FL                 single_family_detached  6297.
##  9 PA                 single_family_attached 12157.
## 10 MO                 single_family_detached  3242.
## #  with 12,073 more rows

Now the aggregation:

recs_type_state_sum = summarize(recs_homes_group_states, homes = sum(weight) )

## `summarise()` regrouping output by 'state' (override with `.groups` argument)

recs_type_state_sum

## # A tibble: 134 x 3
## # Groups:   state [27]
##    state          type                      homes
##    <chr>          <chr>                     <dbl>
##  1 AK, HI, OR, WA apartment_few           374743.
##  2 AK, HI, OR, WA apartment_many          946196.
##  3 AK, HI, OR, WA mobile_home             384298.
##  4 AK, HI, OR, WA single_family_attached  189645.
##  5 AK, HI, OR, WA single_family_detached 2833057.
##  6 AL, KY, MS     apartment_few           183983.
##  7 AL, KY, MS     apartment_many          201344.
##  8 AL, KY, MS     mobile_home             422086.
##  9 AL, KY, MS     single_family_attached  192720.
## 10 AL, KY, MS     single_family_detached 3637141.
## #  with 124 more rows
…
# Drop total: -----------------------------------------------------------------
recs_type_state = select(recs_type_state, -Total)

# Sort by Single Family Attached: ---------------------------------------------
recs_type_state = arrange(recs_type_state, single_family_attached)

## Use desc() to sort in descending order
recs_type_state = arrange(recs_type_state, desc(single_family_attached))
recs_type_state

## # A tibble: 27 x 6
## # Groups:   state [27]
##    state apartment_few apartment_many mobile_home single_family_a
##    <chr>         <dbl>          <dbl>       <dbl>            <dbl>
##  1 PA            11.0            11.5        5.29            19.4 
##  2 DE,           3.21           18.5        7.42            17.3 
##  3 CO             7.71           13.6        5.10            10.7 
##  4 VA             4.09           16.0       10.6              7.29
##  5 CA             8.47           23.5        3.23             7.01
##  6 IN,           7.56           12.5        3.30             6.29
##  7 NJ            11.3            14.5        1.88             5.93
##  8 WI            11.3            12.4        2.19             5.85
##  9 MA            24.4            21.1        1.58             5.70
## 10 IA,           3.95           14.3        5.22             5.68
## #  with 17 more rows, and 1 more variable: single_family_detached <dbl>
…
# Change options for display
 options( list('digits' = 2, dplyr.width = Inf) )
 home_type_prop

## # A tibble: 27 x 6
## # Groups:   state [27]
##    state          apartment_few apartment_many mobile_home
##    <chr>                  <dbl>          <dbl>       <dbl>
##  1 PA                     11.0            11.5        5.29
##  2 DE, DC, MD, WV          3.21           18.5        7.42
##  3 CO                      7.71           13.6        5.10
##  4 VA                      4.09           16.0       10.6 
##  5 CA                      8.47           23.5        3.23
##  6 IN, OH                  7.56           12.5        3.30
##  7 NJ                     11.3            14.5        1.88
##  8 WI                     11.3            12.4        2.19
##  9 MA                     24.4            21.1        1.58
## 10 IA, MN, ND, SD          3.95           14.3        5.22
##    single_family_attached single_family_detached
##                     <dbl>                  <dbl>
##  1                  19.4                    52.8
##  2                  17.3                    53.6
##  3                  10.7                    62.9
##  4                   7.29                   62.0
##  5                   7.01                   57.8
##  6                   6.29                   70.4
##  7                   5.93                   66.3
##  8                   5.85                   68.3
##  9                   5.70                   47.2
## 10                   5.68                   70.9
## #  with 17 more rows
…
